^C:\USERS\300044520\DOWNLOADS\TICTACTOE\TICTACTOE\MAIN.CPP
C:\USERS\300044520\DOWNLOADS\TICTACTOE\TICTACTOE\DEBUG\VC141.PDB
C:\USERS\300044520\DOWNLOADS\TICTACTOE\TICTACTOE\DEBUG\VC141.IDB
C:\USERS\300044520\DOWNLOADS\TICTACTOE\TICTACTOE\DEBUG\MAIN.OBJ
